fn,ln,tel
David," Ducray"," 5555-6655"
Jules," Dumont"," 5555-1590"
Gérard," Dupond"," 5555-7898"
Jean," Dupond"," 5555-2121"
Julie," Durand"," 5555-1234"
Hervé," Gusto"," 5555-1654"
John," Meunier"," 5555-5566"
